2015-09-04 10:00:20,791 [5] INFO - Form: frmLogin, Method: Page_Load() begin!
2015-09-04 10:00:20,862 [5] INFO - Form: frmLogin, Method: Init_Form() begin!
2015-09-04 10:00:20,867 [5] INFO - Form: frmLogin, Method: BindCombo() begin!
2015-09-04 10:00:20,974 [5] INFO - Form: frmLogin, Method: BindCombo() end!
2015-09-04 10:00:20,978 [5] INFO - Form: frmLogin, Method: GetApplicationParameters() begin!
2015-09-04 10:00:20,999 [5] INFO - Form: frmLogin, Method: GetApplicationParameters() end!
2015-09-04 10:00:21,003 [5] INFO - Form: frmLogin, Method: Init_Form() end!
2015-09-04 10:00:21,007 [5] INFO - Form: frmLogin, Method: Page_Load() end!
2015-09-04 10:00:24,933 [5] INFO - Form: frmLogin, Method: Page_Load() begin!
2015-09-04 10:00:24,937 [5] INFO - Form: frmLogin, Method: Page_Load() end!
2015-09-04 10:00:24,947 [5] INFO - Form: frmLogin, Method: ValidateLogin() begin!
2015-09-04 10:00:24,951 [5] INFO - Form: frmLogin, Method: ValidateLogin() end!
2015-09-04 10:00:24,954 [5] INFO - Form: frmLogin, Method: btnLogin_Click() begin!
2015-09-04 10:00:25,211 [5] INFO - Form: frmLogin, Method: btnLogin_Click() end!
2015-09-04 10:00:30,188 [6] INFO - Form: frmLogin, Method: Page_Load() begin!
2015-09-04 10:00:30,195 [6] INFO - Form: frmLogin, Method: Page_Load() end!
2015-09-04 10:00:30,201 [6] INFO - Form: frmLogin, Method: ValidateLogin() begin!
2015-09-04 10:00:30,208 [6] INFO - Form: frmLogin, Method: ValidateLogin() end!
2015-09-04 10:00:30,214 [6] INFO - Form: frmLogin, Method: btnLogin_Click() begin!
2015-09-04 10:00:30,303 [6] INFO - Form: frmLogin, Method: btnLogin_Click() end!
